-------------------------------------------------------------------------------
Test set: in.vit.site.mtech.placing.visual.retrieval.AppTest
-------------------------------------------------------------------------------
Tests run: 1, Failures: 0, Errors: 0, Skipped: 0, Time elapsed: 0.016 sec
